[
  {
    "id":"1",
    "firstname":"Mahesh",
    "lastname":"Chandra",
    "mobilephone":"9849974097",
    "homephone":"(040)555-9874",
    "email":"mahesh.chandra61@gmail.com",
    "address":"Flat No:401,SR Residency,Sri Ram Nagar, Kodapur, Hyderabad-500084"
  },
  {
    "id":"2",
    "firstname":"Mohan",
    "lastname":"Radha",
    "mobilephone":"9849974097",
    "homephone":"(040)555-9874",
    "email":"mahesh.chandra61@gmail.com",
    "address":"Flat No:401,SR Residency,Sri Ram Nagar, Kodapur, Hyderabad-500084"
  },
  {
    "id":"3",
    "firstname":"Akhila",
    "lastname":"Sursani",
    "mobilephone":"9849974097",
    "homephone":"(040)555-9874",
    "email":"akhila@gmail.com",
    "address":"Flat No:401,SR Residency,Sri Ram Nagar, Kodapur, Hyderabad-500084"
  },
  {
    "id":"4",
    "firstname":"Bharathi",
    "lastname":"Vishala",
    "mobilephone":"9849974097",
    "homephone":"(040)555-9874",
    "email":"bVishala@gmail.com",
    "address":"Flat No:401,SR Residency,Sri Ram Nagar, Kodapur, Hyderabad-500084"
  },
  {
    "id":"5",
    "firstname":"Chandu",
    "lastname":"Addala",
    "mobilephone":"9849974097",
    "homephone":"(040)555-9874",
    "email":"addalac@gmail.com",
    "address":"Flat No:401,SR Residency,Sri Ram Nagar, Kodapur, Hyderabad-500084"
  },
  {
    "id":"6",
    "firstname":"Nagarjuna",
    "lastname":"Miryala",
    "mobilephone":"9849974097",
    "homephone":"(040)555-9874",
    "email":"miryalanag@gmail.com",
    "address":"Flat No:401,SR Residency,Sri Ram Nagar, Kodapur, Hyderabad-500084"
    }
]
